10.10.32.2
10.10.49.1
10.10.33.2
10.10.34.2
10.10.35.2
10.10.36.2
10.10.37.2
10.10.38.2
10.10.39.2
10.10.40.2
10.10.41.2
10.10.42.2
10.10.43.2
10.10.44.2
10.10.45.2
10.10.46.2
10.10.47.2
10.10.10.2
10.10.11.2
10.10.12.2
10.10.13.2
10.10.14.2
10.10.15.2
10.10.17.2
10.10.16.2
10.10.19.2
10.10.18.2
10.10.31.2
10.10.20.2
10.10.21.2
10.10.22.2
10.10.23.1
10.10.24.1
10.10.25.1
10.10.48.2
10.10.4.2
10.10.5.2
10.10.6.2
10.10.7.2
10.10.8.2
10.10.9.2
10.10.26.2
10.10.27.2
10.10.28.2
10.10.29.2
10.10.30.2
10.10.3.1
10.10.2.2